<?xml version="1.0" encoding="UTF-8" standalone="no"?>
<!-- Created with Inkscape (http://www.inkscape.org/) -->

<svg
   xmlns:dc="http://purl.org/dc/elements/1.1/"
   xmlns:cc="http://creativecommons.org/ns#"
   xmlns:rdf="http://www.w3.org/1999/02/22-rdf-syntax-ns#"
   xmlns:svg="http://www.w3.org/2000/svg"
   xmlns="http://www.w3.org/2000/svg"
   xmlns:sodipodi="http://sodipodi.sourceforge.net/DTD/sodipodi-0.dtd"
   xmlns:inkscape="http://www.inkscape.org/namespaces/inkscape"
   width="800mm"
   height="800mm"
   viewBox="0 0 2834.6456 2834.6457"
   id="svg2"
   version="1.1"
   inkscape:version="0.92.2 2405546, 2018-03-11"
   sodipodi:docname="2018.1.01.svg">
  <sodipodi:namedview
     id="base"
     pagecolor="#ffffff"
     bordercolor="#660066"
     borderopacity="1"
     inkscape:pageopacity="0.0"
     inkscape:pageshadow="2"
     inkscape:zoom="0.1767767"
     inkscape:cx="-520.79408"
     inkscape:cy="1390.9809"
     inkscape:document-units="px"
     inkscape:current-layer="layer2"
     showgrid="false"
     inkscape:showpageshadow="false"
     fit-margin-top="0"
     fit-margin-left="0"
     fit-margin-right="0"
     fit-margin-bottom="0"
     inkscape:window-width="3840"
     inkscape:window-height="2026"
     inkscape:window-x="0"
     inkscape:window-y="0"
     inkscape:window-maximized="1"
     inkscape:pagecheckerboard="true"
     inkscape:snap-bbox="true"
     inkscape:bbox-paths="true"
     inkscape:bbox-nodes="true"
     inkscape:snap-bbox-edge-midpoints="true"
     inkscape:snap-bbox-midpoints="true"
     inkscape:object-paths="true"
     inkscape:snap-intersection-paths="true"
     inkscape:snap-smooth-nodes="true"
     inkscape:snap-midpoints="true"
     inkscape:snap-object-midpoints="true"
     inkscape:snap-center="true"
     inkscape:snap-text-baseline="true"
     inkscape:snap-global="true"
     borderlayer="true"
     inkscape:snap-page="true"
     showguides="false" />
  <defs
     id="defs4" />
  <metadata
     id="metadata7">
    <rdf:RDF>
      <cc:Work
         rdf:about="">
        <dc:format>image/svg+xml</dc:format>
        <dc:type
           rdf:resource="http://purl.org/dc/dcmitype/StillImage" />
        <dc:title />
      </cc:Work>
    </rdf:RDF>
  </metadata>
  <g
     transform="translate(222.41168,2397.7454)"
     id="layer1"
     inkscape:groupmode="layer"
     inkscape:label="Ebene 1"
     style="display:inline"
     sodipodi:insensitive="true">
    <rect
       style="display:inline;opacity:1;fill:#1565c0;fill-opacity:1;fill-rule:evenodd;stroke:none;stroke-width:1.77165353;stroke-linecap:butt;stroke-linejoin:miter;stroke-miterlimit:4;stroke-dasharray:1.77165357, 10.62992144;stroke-dashoffset:5.29133892;stroke-opacity:1;paint-order:markers fill stroke"
       id="rect838"
       width="2834.6458"
       height="2834.6458"
       x="0"
       y="-2634.6455"
       transform="translate(-222.41168,236.90022)" />
  </g>
  <g
     inkscape:groupmode="layer"
     id="layer4"
     inkscape:label="bottom"
     sodipodi:insensitive="true">
    <rect
       transform="rotate(45,-3180.2986,1317.3228)"
       inkscape:tile-y0="-1126.924"
       inkscape:tile-x0="3740.801"
       inkscape:tile-h="5075.1781"
       inkscape:tile-w="78.442351"
       inkscape:tile-cy="1410.6651"
       inkscape:tile-cx="3780.0222"
       y="-4380.6899"
       x="-862.16125"
       height="5075.1782"
       width="142.08195"
       id="rect5324"
       style="display:inline;opacity:1;fill:#d32f2f;fill-opacity:1;fill-rule:evenodd;stroke:none;stroke-width:1.77165329;stroke-linecap:butt;stroke-linejoin:miter;stroke-miterlimit:4;stroke-dasharray:1.7716535, 10.62992104;stroke-dashoffset:5.29133892;stroke-opacity:1;paint-order:markers fill stroke" />
    <rect
       transform="rotate(45)"
       style="display:inline;opacity:1;fill:#d32f2f;fill-opacity:1;fill-rule:evenodd;stroke:none;stroke-width:1.77165341;stroke-linecap:butt;stroke-linejoin:miter;stroke-miterlimit:4;stroke-dasharray:1.77165349, 10.62992096;stroke-dashoffset:5.29133892;stroke-opacity:1;paint-order:markers fill stroke"
       id="rect5326"
       width="417.85358"
       height="5075.1782"
       x="1091.374"
       y="-2421.4363"
       inkscape:tile-cx="3780.0222"
       inkscape:tile-cy="1410.6651"
       inkscape:tile-w="78.442351"
       inkscape:tile-h="5075.1781"
       inkscape:tile-x0="3740.801"
       inkscape:tile-y0="-1126.924" />
    <rect
       transform="rotate(45,-3180.2986,1317.3228)"
       inkscape:tile-y0="-1126.924"
       inkscape:tile-x0="3740.801"
       inkscape:tile-h="5075.1781"
       inkscape:tile-w="78.442351"
       inkscape:tile-cy="1410.6651"
       inkscape:tile-cx="3780.0222"
       y="-4465.5425"
       x="940.96069"
       height="5075.1782"
       width="226.93475"
       id="rect5328"
       style="display:inline;opacity:1;fill:#d32f2f;fill-opacity:1;fill-rule:evenodd;stroke:none;stroke-width:1.77165341;stroke-linecap:butt;stroke-linejoin:miter;stroke-miterlimit:4;stroke-dasharray:1.77165348, 10.62992093;stroke-dashoffset:5.29133892;stroke-opacity:1;paint-order:markers fill stroke" />
    <rect
       transform="rotate(45,-3180.2986,1317.3228)"
       style="display:inline;opacity:1;fill:#d32f2f;fill-opacity:1;fill-rule:evenodd;stroke:none;stroke-width:1.77165341;stroke-linecap:butt;stroke-linejoin:miter;stroke-miterlimit:4;stroke-dasharray:1.77165348, 10.62992094;stroke-dashoffset:5.29133892;stroke-opacity:1;paint-order:markers fill stroke"
       id="rect5330"
       width="333.00076"
       height="5075.1782"
       x="1694.0295"
       y="-4051.8853"
       inkscape:tile-cx="3780.0222"
       inkscape:tile-cy="1410.6651"
       inkscape:tile-w="78.442351"
       inkscape:tile-h="5075.1781"
       inkscape:tile-x0="3740.801"
       inkscape:tile-y0="-1126.924" />
    <rect
       transform="rotate(45)"
       style="display:inline;opacity:1;fill:#d32f2f;fill-opacity:1;fill-rule:evenodd;stroke:none;stroke-width:1.77165329;stroke-linecap:butt;stroke-linejoin:miter;stroke-miterlimit:4;stroke-dasharray:1.7716535, 10.62992104;stroke-dashoffset:5.29133892;stroke-opacity:1;paint-order:markers fill stroke"
       id="rect5332"
       width="142.08195"
       height="5075.1782"
       x="2306.8694"
       y="-2228.385"
       inkscape:tile-cx="3780.0222"
       inkscape:tile-cy="1410.6651"
       inkscape:tile-w="78.442351"
       inkscape:tile-h="5075.1781"
       inkscape:tile-x0="3740.801"
       inkscape:tile-y0="-1126.924" />
    <rect
       transform="rotate(45)"
       style="display:inline;opacity:1;fill:#d32f2f;fill-opacity:1;fill-rule:evenodd;stroke:none;stroke-width:1.77165341;stroke-linecap:butt;stroke-linejoin:miter;stroke-miterlimit:4;stroke-dasharray:1.77165348, 10.62992093;stroke-dashoffset:5.29133892;stroke-opacity:1;paint-order:markers fill stroke"
       id="rect5334"
       width="226.93475"
       height="5075.1782"
       x="2538.6956"
       y="-2443.3386"
       inkscape:tile-cx="3780.0222"
       inkscape:tile-cy="1410.6651"
       inkscape:tile-w="78.442351"
       inkscape:tile-h="5075.1781"
       inkscape:tile-x0="3740.801"
       inkscape:tile-y0="-1126.924" />
    <rect
       transform="rotate(45,-3180.2986,1317.3228)"
       inkscape:tile-y0="-1126.924"
       inkscape:tile-x0="3740.801"
       inkscape:tile-h="5075.1781"
       inkscape:tile-w="78.442351"
       inkscape:tile-cy="1410.6651"
       inkscape:tile-cx="3780.0222"
       y="-4762.5273"
       x="-1509.1646"
       height="5075.1782"
       width="290.57437"
       id="rect5336"
       style="display:inline;opacity:1;fill:#d32f2f;fill-opacity:1;fill-rule:evenodd;stroke:none;stroke-width:1.77165341;stroke-linecap:butt;stroke-linejoin:miter;stroke-miterlimit:4;stroke-dasharray:1.77165348, 10.62992093;stroke-dashoffset:5.29133892;stroke-opacity:1;paint-order:markers fill stroke" />
  </g>
  <g
     inkscape:label="mid"
     id="layer3"
     inkscape:groupmode="layer"
     transform="translate(0,2634.6456)"
     style="display:inline"
     sodipodi:insensitive="true">
    <rect
       style="display:inline;opacity:1;fill:#e53935;fill-opacity:1;fill-rule:evenodd;stroke:none;stroke-width:1.77165329;stroke-linecap:butt;stroke-linejoin:miter;stroke-miterlimit:4;stroke-dasharray:1.7716535, 10.62992104;stroke-dashoffset:5.29133892;stroke-opacity:1;paint-order:markers fill stroke"
       id="rect2972"
       width="142.08195"
       height="5075.1782"
       x="-1147.6161"
       y="-3953.1899"
       inkscape:tile-cx="3780.0222"
       inkscape:tile-cy="1410.6651"
       inkscape:tile-w="78.442351"
       inkscape:tile-h="5075.1781"
       inkscape:tile-x0="3740.801"
       inkscape:tile-y0="-1126.924"
       transform="rotate(45)" />
    <rect
       inkscape:tile-y0="-1126.924"
       inkscape:tile-x0="3740.801"
       inkscape:tile-h="5075.1781"
       inkscape:tile-w="78.442351"
       inkscape:tile-cy="1410.6651"
       inkscape:tile-cx="3780.0222"
       y="-4104.4121"
       x="-494.55658"
       height="5075.1782"
       width="417.85358"
       id="rect5274"
       style="display:inline;opacity:1;fill:#e53935;fill-opacity:1;fill-rule:evenodd;stroke:none;stroke-width:1.77165341;stroke-linecap:butt;stroke-linejoin:miter;stroke-miterlimit:4;stroke-dasharray:1.77165349, 10.62992096;stroke-dashoffset:5.29133892;stroke-opacity:1;paint-order:markers fill stroke"
       transform="rotate(45)" />
    <rect
       style="display:inline;opacity:1;fill:#e53935;fill-opacity:1;fill-rule:evenodd;stroke:none;stroke-width:1.77165341;stroke-linecap:butt;stroke-linejoin:miter;stroke-miterlimit:4;stroke-dasharray:1.77165348, 10.62992093;stroke-dashoffset:5.29133892;stroke-opacity:1;paint-order:markers fill stroke"
       id="rect5276"
       width="226.93475"
       height="5075.1782"
       x="745.50586"
       y="-4143.0425"
       inkscape:tile-cx="3780.0222"
       inkscape:tile-cy="1410.6651"
       inkscape:tile-w="78.442351"
       inkscape:tile-h="5075.1781"
       inkscape:tile-x0="3740.801"
       inkscape:tile-y0="-1126.924"
       transform="rotate(45)" />
    <rect
       inkscape:tile-y0="-1126.924"
       inkscape:tile-x0="3740.801"
       inkscape:tile-h="5075.1781"
       inkscape:tile-w="78.442351"
       inkscape:tile-cy="1410.6651"
       inkscape:tile-cx="3780.0222"
       y="-3826.8853"
       x="1386.0746"
       height="5075.1782"
       width="333.00076"
       id="rect5278"
       style="display:inline;opacity:1;fill:#e53935;fill-opacity:1;fill-rule:evenodd;stroke:none;stroke-width:1.77165341;stroke-linecap:butt;stroke-linejoin:miter;stroke-miterlimit:4;stroke-dasharray:1.77165348, 10.62992094;stroke-dashoffset:5.29133892;stroke-opacity:1;paint-order:markers fill stroke"
       transform="rotate(45)" />
    <rect
       inkscape:tile-y0="-1126.924"
       inkscape:tile-x0="3740.801"
       inkscape:tile-h="5075.1781"
       inkscape:tile-w="78.442351"
       inkscape:tile-cy="1410.6651"
       inkscape:tile-cx="3780.0222"
       y="-4016.3608"
       x="570.93872"
       height="5075.1782"
       width="142.08195"
       id="rect5280"
       style="display:inline;opacity:1;fill:#e53935;fill-opacity:1;fill-rule:evenodd;stroke:none;stroke-width:1.77165329;stroke-linecap:butt;stroke-linejoin:miter;stroke-miterlimit:4;stroke-dasharray:1.7716535, 10.62992104;stroke-dashoffset:5.29133892;stroke-opacity:1;paint-order:markers fill stroke"
       transform="rotate(45)" />
    <rect
       inkscape:tile-y0="-1126.924"
       inkscape:tile-x0="3740.801"
       inkscape:tile-h="5075.1781"
       inkscape:tile-w="78.442351"
       inkscape:tile-cy="1410.6651"
       inkscape:tile-cx="3780.0222"
       y="-4298.8145"
       x="1995.2649"
       height="5075.1782"
       width="226.93475"
       id="rect5282"
       style="display:inline;opacity:1;fill:#e53935;fill-opacity:1;fill-rule:evenodd;stroke:none;stroke-width:1.77165341;stroke-linecap:butt;stroke-linejoin:miter;stroke-miterlimit:4;stroke-dasharray:1.77165348, 10.62992093;stroke-dashoffset:5.29133892;stroke-opacity:1;paint-order:markers fill stroke"
       transform="rotate(45)" />
    <rect
       style="display:inline;opacity:1;fill:#e53935;fill-opacity:1;fill-rule:evenodd;stroke:none;stroke-width:1.77165341;stroke-linecap:butt;stroke-linejoin:miter;stroke-miterlimit:4;stroke-dasharray:1.77165348, 10.62992093;stroke-dashoffset:5.29133892;stroke-opacity:1;paint-order:markers fill stroke"
       id="rect5284"
       width="290.57437"
       height="5075.1782"
       x="-1877.1194"
       y="-4297.5273"
       inkscape:tile-cx="3780.0222"
       inkscape:tile-cy="1410.6651"
       inkscape:tile-w="78.442351"
       inkscape:tile-h="5075.1781"
       inkscape:tile-x0="3740.801"
       inkscape:tile-y0="-1126.924"
       transform="rotate(45)" />
  </g>
  <g
     inkscape:groupmode="layer"
     id="layer5"
     inkscape:label="top"
     sodipodi:insensitive="true">
    <rect
       transform="rotate(45)"
       inkscape:tile-y0="-1126.924"
       inkscape:tile-x0="3740.801"
       inkscape:tile-h="5075.1781"
       inkscape:tile-w="78.442351"
       inkscape:tile-cy="1410.6651"
       inkscape:tile-cx="3780.0222"
       y="-2290.2698"
       x="230.79678"
       height="5075.1782"
       width="142.08195"
       id="rect5347"
       style="display:inline;opacity:1;fill:#e57373;fill-opacity:1;fill-rule:evenodd;stroke:none;stroke-width:1.77165329;stroke-linecap:butt;stroke-linejoin:miter;stroke-miterlimit:4;stroke-dasharray:1.7716535, 10.62992104;stroke-dashoffset:5.29133892;stroke-opacity:1;paint-order:markers fill stroke" />
    <rect
       transform="rotate(45)"
       style="display:inline;opacity:1;fill:#e57373;fill-opacity:1;fill-rule:evenodd;stroke:none;stroke-width:1.77165341;stroke-linecap:butt;stroke-linejoin:miter;stroke-miterlimit:4;stroke-dasharray:1.77165349, 10.62992096;stroke-dashoffset:5.29133892;stroke-opacity:1;paint-order:markers fill stroke"
       id="rect5349"
       width="417.85358"
       height="5075.1782"
       x="838.85626"
       y="-2426.4919"
       inkscape:tile-cx="3780.0222"
       inkscape:tile-cy="1410.6651"
       inkscape:tile-w="78.442351"
       inkscape:tile-h="5075.1781"
       inkscape:tile-x0="3740.801"
       inkscape:tile-y0="-1126.924" />
    <rect
       transform="rotate(45)"
       inkscape:tile-y0="-1126.924"
       inkscape:tile-x0="3740.801"
       inkscape:tile-h="5075.1781"
       inkscape:tile-w="78.442351"
       inkscape:tile-cy="1410.6651"
       inkscape:tile-cx="3780.0222"
       y="-2397.6223"
       x="1366.4187"
       height="5075.1782"
       width="226.93475"
       id="rect5351"
       style="display:inline;opacity:1;fill:#e57373;fill-opacity:1;fill-rule:evenodd;stroke:none;stroke-width:1.77165341;stroke-linecap:butt;stroke-linejoin:miter;stroke-miterlimit:4;stroke-dasharray:1.77165348, 10.62992093;stroke-dashoffset:5.29133892;stroke-opacity:1;paint-order:markers fill stroke" />
    <rect
       transform="rotate(45)"
       style="display:inline;opacity:1;fill:#e57373;fill-opacity:1;fill-rule:evenodd;stroke:none;stroke-width:1.77165341;stroke-linecap:butt;stroke-linejoin:miter;stroke-miterlimit:4;stroke-dasharray:1.77165348, 10.62992094;stroke-dashoffset:5.29133892;stroke-opacity:1;paint-order:markers fill stroke"
       id="rect5353"
       width="333.00076"
       height="5075.1782"
       x="2959.4875"
       y="-2358.9651"
       inkscape:tile-cx="3780.0222"
       inkscape:tile-cy="1410.6651"
       inkscape:tile-w="78.442351"
       inkscape:tile-h="5075.1781"
       inkscape:tile-x0="3740.801"
       inkscape:tile-y0="-1126.924" />
    <rect
       style="display:inline;opacity:1;fill:#e57373;fill-opacity:1;fill-rule:evenodd;stroke:none;stroke-width:1.77165329;stroke-linecap:butt;stroke-linejoin:miter;stroke-miterlimit:4;stroke-dasharray:1.77165352, 10.6299211;stroke-dashoffset:5.29133892;stroke-opacity:1;paint-order:markers fill stroke"
       id="rect5355"
       width="629.9856"
       height="5075.1782"
       x="1735.3999"
       y="-2728.4409"
       inkscape:tile-cx="3780.0222"
       inkscape:tile-cy="1410.6651"
       inkscape:tile-w="78.442351"
       inkscape:tile-h="5075.1781"
       inkscape:tile-x0="3740.801"
       inkscape:tile-y0="-1126.924"
       transform="rotate(45)" />
    <rect
       transform="rotate(45)"
       style="display:inline;opacity:1;fill:#e57373;fill-opacity:1;fill-rule:evenodd;stroke:none;stroke-width:1.77165341;stroke-linecap:butt;stroke-linejoin:miter;stroke-miterlimit:4;stroke-dasharray:1.77165348, 10.62992093;stroke-dashoffset:5.29133892;stroke-opacity:1;paint-order:markers fill stroke"
       id="rect5357"
       width="226.93475"
       height="5075.1782"
       x="3531.1777"
       y="-2538.3943"
       inkscape:tile-cx="3780.0222"
       inkscape:tile-cy="1410.6651"
       inkscape:tile-w="78.442351"
       inkscape:tile-h="5075.1781"
       inkscape:tile-x0="3740.801"
       inkscape:tile-y0="-1126.924" />
    <rect
       transform="rotate(45)"
       inkscape:tile-y0="-1126.924"
       inkscape:tile-x0="3740.801"
       inkscape:tile-h="5075.1781"
       inkscape:tile-w="78.442351"
       inkscape:tile-cy="1410.6651"
       inkscape:tile-cx="3780.0222"
       y="-2342.1072"
       x="438.79346"
       height="5075.1782"
       width="290.57437"
       id="rect5359"
       style="display:inline;opacity:1;fill:#e57373;fill-opacity:1;fill-rule:evenodd;stroke:none;stroke-width:1.77165341;stroke-linecap:butt;stroke-linejoin:miter;stroke-miterlimit:4;stroke-dasharray:1.77165348, 10.62992093;stroke-dashoffset:5.29133892;stroke-opacity:1;paint-order:markers fill stroke" />
    <rect
       inkscape:tile-y0="-1126.924"
       inkscape:tile-x0="3740.801"
       inkscape:tile-h="5075.1781"
       inkscape:tile-w="78.442351"
       inkscape:tile-cy="1410.6651"
       inkscape:tile-cx="3780.0222"
       y="-2530.8943"
       x="2608.6777"
       height="5075.1782"
       width="226.93475"
       id="rect5368"
       style="display:inline;opacity:1;fill:#e57373;fill-opacity:1;fill-rule:evenodd;stroke:none;stroke-width:1.77165341;stroke-linecap:butt;stroke-linejoin:miter;stroke-miterlimit:4;stroke-dasharray:1.77165348, 10.62992093;stroke-dashoffset:5.29133892;stroke-opacity:1;paint-order:markers fill stroke"
       transform="rotate(45)" />
  </g>
  <g
     inkscape:label="Top"
     id="layer2"
     inkscape:groupmode="layer"
     transform="translate(0,2634.6456)"
     style="display:inline">
    <circle
       r="617.35266"
       cy="-1351.0876"
       cx="1401.3639"
       id="path1396"
       style="opacity:1;fill:none;fill-opacity:1;fill-rule:evenodd;stroke:#ffffff;stroke-width:9.375;stroke-linecap:butt;stroke-linejoin:miter;stroke-miterlimit:4;stroke-dasharray:none;stroke-dashoffset:0;stroke-opacity:1;paint-order:markers fill stroke" />
    <path
       style="opacity:1;fill:none;fill-opacity:1;fill-rule:evenodd;stroke:#ffffff;stroke-width:14.0624998;stroke-linecap:butt;stroke-linejoin:miter;stroke-miterlimit:4;stroke-dasharray:14.0624998,84.37499878;stroke-dashoffset:77.34374888;stroke-opacity:1;paint-order:markers fill stroke"
       id="circle15195"
       sodipodi:type="arc"
       sodipodi:cx="-1345.9512"
       sodipodi:cy="-1406.2979"
       sodipodi:rx="673.19324"
       sodipodi:ry="673.19324"
       sodipodi:start="0"
       sodipodi:end="3.1415927"
       sodipodi:open="true"
       d="m -672.75793,-1406.2979 a 673.19324,673.19324 0 0 1 -336.59667,583.0025 673.19324,673.19324 0 0 1 -673.1932,-2e-5 673.19324,673.19324 0 0 1 -336.5966,-583.00248"
       inkscape:transform-center-y="0.00059792296"
       transform="rotate(89.790359)"
       inkscape:transform-center-x="85.169637" />
    <path
       inkscape:transform-center-x="-87.542893"
       transform="rotate(-90)"
       inkscape:transform-center-y="4.9406794e-06"
       d="m 2040.528,1401.3859 a 689.44031,689.41974 0 0 1 -344.7202,597.055 689.44031,689.41974 0 0 1 -689.4403,0 689.44031,689.41974 0 0 1 -344.72016,-597.0551"
       sodipodi:open="true"
       sodipodi:end="3.1415927"
       sodipodi:start="0"
       sodipodi:ry="689.41974"
       sodipodi:rx="689.44031"
       sodipodi:cy="1401.3859"
       sodipodi:cx="1351.0876"
       sodipodi:type="arc"
       id="path15197"
       style="opacity:1;fill:none;fill-opacity:1;fill-rule:evenodd;stroke:#ffffff;stroke-width:46.875;stroke-linecap:butt;stroke-linejoin:miter;stroke-miterlimit:4;stroke-dasharray:11.71874982, 11.71874982;stroke-dashoffset:60.93749237;stroke-opacity:1;paint-order:markers fill stroke" />
    <g
       style="stroke-width:0.25396097;fill:#ffffff"
       id="g1318"
       transform="matrix(3.9376127,0,0,3.9376127,1898.1972,-2710.4993)">
      <g
         style="fill:#ffffff;fill-opacity:1;stroke-width:0.25396097"
         transform="matrix(1.2196132,0,0,1.0000088,-467.56616,-225.96506)"
         id="g4446">
        <rect
           y="462.86115"
           x="317.00177"
           height="199.99825"
           width="47.994675"
           id="rect4149-7"
           style="opacity:1;fill:#ffffff;fill-opacity:1;fill-rule:evenodd;stroke:none;stroke-width:1.79651988;stroke-linecap:round;stroke-linejoin:miter;stroke-miterlimit:4;stroke-dasharray:5.38956001, 5.38956001000000029;stroke-dashoffset:0;stroke-opacity:1" />
        <rect
           y="533.59174"
           x="259.00415"
           height="129.26767"
           width="47.994675"
           id="rect4149-0-6"
           style="opacity:1;fill:#ffffff;fill-opacity:1;fill-rule:evenodd;stroke:none;stroke-width:1.79651988;stroke-linecap:round;stroke-linejoin:miter;stroke-miterlimit:4;stroke-dasharray:5.38956001, 5.38956001000000029;stroke-dashoffset:0;stroke-opacity:1" />
      </g>
      <path
         style="fill:#ffffff;fill-opacity:1;fill-rule:evenodd;stroke:none;stroke-width:0.2380884px;stroke-linecap:butt;stroke-linejoin:miter;stroke-opacity:1"
         d="m -222.41168,236.90016 h 129.26633 v 58.53494 h -70.93002 v 141.46508 h -58.33631 z"
         id="path5961"
         inkscape:connector-curvature="0" />
    </g>
    <text
       xml:space="preserve"
       style="font-style:normal;font-variant:normal;font-weight:normal;font-stretch:normal;font-size:198.28608704px;line-height:18.73569298px;font-family:'Titillium Web';-inkscape-font-specification:'Titillium Web, Normal';font-variant-ligatures:normal;font-variant-caps:normal;font-variant-numeric:normal;font-feature-settings:normal;text-align:center;letter-spacing:0px;word-spacing:0px;writing-mode:lr-tb;text-anchor:middle;fill:#ffffff;fill-opacity:1;stroke:none;stroke-width:0.93749994px;stroke-linecap:butt;stroke-linejoin:miter;stroke-opacity:1"
       x="1410.7391"
       y="-403.52386"
       id="text15201"><tspan
         sodipodi:role="line"
         id="tspan15199"
         x="1410.7391"
         y="-403.52386"
         style="font-style:normal;font-variant:normal;font-weight:normal;font-stretch:normal;font-size:198.28608704px;font-family:'Titillium Web';-inkscape-font-specification:'Titillium Web, Normal';font-variant-ligatures:normal;font-variant-caps:normal;font-variant-numeric:normal;font-feature-settings:normal;text-align:center;writing-mode:lr-tb;text-anchor:middle;fill:#ffffff;stroke-width:0.93749994px">MANJARO LINUX</tspan></text>
  </g>
</svg>
