<?xml version="1.0" encoding="UTF-8" standalone="no"?>
<svg
   xmlns:dc="http://purl.org/dc/elements/1.1/"
   xmlns:cc="http://creativecommons.org/ns#"
   xmlns:rdf="http://www.w3.org/1999/02/22-rdf-syntax-ns#"
   xmlns:svg="http://www.w3.org/2000/svg"
   xmlns="http://www.w3.org/2000/svg"
   xmlns:xlink="http://www.w3.org/1999/xlink"
   xmlns:sodipodi="http://sodipodi.sourceforge.net/DTD/sodipodi-0.dtd"
   xmlns:inkscape="http://www.inkscape.org/namespaces/inkscape"
   width="512"
   height="512"
   viewBox="0 0 512 512"
   version="1.1"
   id="svg0"
   sodipodi:docname="2020.12.svg"
   inkscape:version="1.0.1 (3bc2e813f5, 2020-09-07)">
  <defs
     id="defs0">
    <linearGradient
       inkscape:collect="always"
       id="linearGradient2721">
      <stop
         style="stop-color:#deddda;stop-opacity:1"
         offset="0"
         id="stop2717" />
      <stop
         style="stop-color:#ffffff;stop-opacity:1"
         offset="1"
         id="stop2719" />
    </linearGradient>
    <linearGradient
       inkscape:collect="always"
       id="linearGradient911">
      <stop
         style="stop-color:#2f0302;stop-opacity:1;"
         offset="0"
         id="stop907" />
      <stop
         style="stop-color:#c10330;stop-opacity:1"
         offset="1"
         id="stop909" />
    </linearGradient>
    <linearGradient
       inkscape:collect="always"
       id="linearGradient886">
      <stop
         style="stop-color:#0f1e33;stop-opacity:1"
         offset="0"
         id="stop882" />
      <stop
         style="stop-color:#142d4c;stop-opacity:1"
         offset="1"
         id="stop884" />
    </linearGradient>
    <linearGradient
       inkscape:collect="always"
       xlink:href="#linearGradient886"
       id="linearGradient888"
       x1="194.20609"
       y1="73.662148"
       x2="315.51013"
       y2="411.24661"
       gradientUnits="userSpaceOnUse" />
    <linearGradient
       inkscape:collect="always"
       xlink:href="#linearGradient911"
       id="linearGradient913"
       x1="256"
       y1="357.53336"
       x2="240"
       y2="433.53336"
       gradientUnits="userSpaceOnUse" />
    <filter
       inkscape:collect="always"
       style="color-interpolation-filters:sRGB"
       id="filter940"
       x="-0.1235595"
       width="1.247119"
       y="-0.17749492"
       height="1.3549898">
      <feGaussianBlur
         inkscape:collect="always"
         stdDeviation="27.373364"
         id="feGaussianBlur942" />
    </filter>
    <filter
       inkscape:collect="always"
       style="color-interpolation-filters:sRGB"
       id="filter1106"
       x="-0.060842917"
       width="1.1216858"
       y="-0.060842917"
       height="1.1216858">
      <feGaussianBlur
         inkscape:collect="always"
         stdDeviation="1.5210729"
         id="feGaussianBlur1108" />
    </filter>
    <filter
       inkscape:collect="always"
       style="color-interpolation-filters:sRGB"
       id="filter1242"
       x="-0.0088573322"
       width="1.0177147"
       y="-0.0088573322"
       height="1.0177147">
      <feGaussianBlur
         inkscape:collect="always"
         stdDeviation="0.11071665"
         id="feGaussianBlur1244" />
    </filter>
    <filter
       inkscape:collect="always"
       style="color-interpolation-filters:sRGB"
       id="filter1478"
       x="-0.02239587"
       width="1.0447917"
       y="-0.017113852"
       height="1.0342277">
      <feGaussianBlur
         inkscape:collect="always"
         stdDeviation="0.87733564"
         id="feGaussianBlur1480" />
    </filter>
    <filter
       inkscape:collect="always"
       style="color-interpolation-filters:sRGB"
       id="filter1722"
       x="-0.033695057"
       width="1.0673901"
       y="-0.025748149"
       height="1.0514963">
      <feGaussianBlur
         inkscape:collect="always"
         stdDeviation="1.3199699"
         id="feGaussianBlur1724" />
    </filter>
    <filter
       inkscape:collect="always"
       style="color-interpolation-filters:sRGB"
       id="filter1726"
       x="-0.033695057"
       width="1.0673901"
       y="-0.025748149"
       height="1.0514963">
      <feGaussianBlur
         inkscape:collect="always"
         stdDeviation="1.3199699"
         id="feGaussianBlur1728" />
    </filter>
    <filter
       inkscape:collect="always"
       style="color-interpolation-filters:sRGB"
       id="filter1730"
       x="-0.033695057"
       width="1.0673901"
       y="-0.025748149"
       height="1.0514963">
      <feGaussianBlur
         inkscape:collect="always"
         stdDeviation="1.3199699"
         id="feGaussianBlur1732" />
    </filter>
    <filter
       inkscape:collect="always"
       style="color-interpolation-filters:sRGB"
       id="filter1734"
       x="-0.033695057"
       width="1.0673901"
       y="-0.025748149"
       height="1.0514963">
      <feGaussianBlur
         inkscape:collect="always"
         stdDeviation="1.3199699"
         id="feGaussianBlur1736" />
    </filter>
    <filter
       inkscape:collect="always"
       style="color-interpolation-filters:sRGB"
       id="filter1738"
       x="-0.033695057"
       width="1.0673901"
       y="-0.025748149"
       height="1.0514963">
      <feGaussianBlur
         inkscape:collect="always"
         stdDeviation="1.3199699"
         id="feGaussianBlur1740" />
    </filter>
    <filter
       inkscape:collect="always"
       style="color-interpolation-filters:sRGB"
       id="filter1742"
       x="-0.033695057"
       width="1.0673901"
       y="-0.025748149"
       height="1.0514963">
      <feGaussianBlur
         inkscape:collect="always"
         stdDeviation="1.3199699"
         id="feGaussianBlur1744" />
    </filter>
    <filter
       inkscape:collect="always"
       style="color-interpolation-filters:sRGB"
       id="filter1746"
       x="-0.033695057"
       width="1.0673901"
       y="-0.025748149"
       height="1.0514963">
      <feGaussianBlur
         inkscape:collect="always"
         stdDeviation="1.3199699"
         id="feGaussianBlur1748" />
    </filter>
    <filter
       inkscape:collect="always"
       style="color-interpolation-filters:sRGB"
       id="filter1750"
       x="-0.033695057"
       width="1.0673901"
       y="-0.025748149"
       height="1.0514963">
      <feGaussianBlur
         inkscape:collect="always"
         stdDeviation="1.3199699"
         id="feGaussianBlur1752" />
    </filter>
    <filter
       inkscape:collect="always"
       style="color-interpolation-filters:sRGB"
       id="filter1754"
       x="-0.033695057"
       width="1.0673901"
       y="-0.025748149"
       height="1.0514963">
      <feGaussianBlur
         inkscape:collect="always"
         stdDeviation="1.3199699"
         id="feGaussianBlur1756" />
    </filter>
    <filter
       inkscape:collect="always"
       style="color-interpolation-filters:sRGB"
       id="filter1758"
       x="-0.033695057"
       width="1.0673901"
       y="-0.025748149"
       height="1.0514963">
      <feGaussianBlur
         inkscape:collect="always"
         stdDeviation="1.3199699"
         id="feGaussianBlur1760" />
    </filter>
    <filter
       inkscape:collect="always"
       style="color-interpolation-filters:sRGB"
       id="filter1762"
       x="-0.033695057"
       width="1.0673901"
       y="-0.025748149"
       height="1.0514963">
      <feGaussianBlur
         inkscape:collect="always"
         stdDeviation="1.3199699"
         id="feGaussianBlur1764" />
    </filter>
    <filter
       inkscape:collect="always"
       style="color-interpolation-filters:sRGB"
       id="filter1766"
       x="-0.033695057"
       width="1.0673901"
       y="-0.025748149"
       height="1.0514963">
      <feGaussianBlur
         inkscape:collect="always"
         stdDeviation="1.3199699"
         id="feGaussianBlur1768" />
    </filter>
    <filter
       inkscape:collect="always"
       style="color-interpolation-filters:sRGB"
       id="filter1770"
       x="-0.033695057"
       width="1.0673901"
       y="-0.025748149"
       height="1.0514963">
      <feGaussianBlur
         inkscape:collect="always"
         stdDeviation="1.3199699"
         id="feGaussianBlur1772" />
    </filter>
    <filter
       inkscape:collect="always"
       style="color-interpolation-filters:sRGB"
       id="filter1774"
       x="-0.033695057"
       width="1.0673901"
       y="-0.025748149"
       height="1.0514963">
      <feGaussianBlur
         inkscape:collect="always"
         stdDeviation="1.3199699"
         id="feGaussianBlur1776" />
    </filter>
    <filter
       inkscape:collect="always"
       style="color-interpolation-filters:sRGB"
       id="filter1778"
       x="-0.033695057"
       width="1.0673901"
       y="-0.025748149"
       height="1.0514963">
      <feGaussianBlur
         inkscape:collect="always"
         stdDeviation="1.3199699"
         id="feGaussianBlur1780" />
    </filter>
    <filter
       inkscape:collect="always"
       style="color-interpolation-filters:sRGB"
       id="filter1882"
       x="-0.058241599"
       width="1.1164832"
       y="-0.049450414"
       height="1.0989008">
      <feGaussianBlur
         inkscape:collect="always"
         stdDeviation="1.09203"
         id="feGaussianBlur1884" />
    </filter>
    <linearGradient
       inkscape:collect="always"
       xlink:href="#linearGradient2721"
       id="linearGradient2707"
       x1="311.22672"
       y1="207.56207"
       x2="371.91602"
       y2="126.88372"
       gradientUnits="userSpaceOnUse" />
    <linearGradient
       inkscape:collect="always"
       xlink:href="#linearGradient2721"
       id="linearGradient2715"
       x1="218.16554"
       y1="219.43581"
       x2="285.66553"
       y2="133.18581"
       gradientUnits="userSpaceOnUse" />
  </defs>
  <sodipodi:namedview
     id="base"
     pagecolor="#ffffff"
     bordercolor="#666666"
     borderopacity="1.0"
     inkscape:pageopacity="0.0"
     inkscape:pageshadow="2"
     inkscape:document-units="px"
     inkscape:current-layer="layer0"
     units="px"
     borderlayer="true"
     inkscape:pagecheckerboard="false"
     showguides="true"
     inkscape:guide-bbox="true"
     inkscape:document-rotation="0"
     showgrid="false"
     inkscape:zoom="1"
     inkscape:cx="632.79102"
     inkscape:cy="447.32626"
     inkscape:window-width="2192"
     inkscape:window-height="1169"
     inkscape:window-x="0"
     inkscape:window-y="0"
     inkscape:window-maximized="1"
     inkscape:snap-bbox="true"
     inkscape:bbox-paths="true"
     inkscape:bbox-nodes="true"
     inkscape:snap-bbox-edge-midpoints="true"
     inkscape:snap-bbox-midpoints="true"
     inkscape:object-paths="true"
     inkscape:snap-intersection-paths="true"
     inkscape:snap-midpoints="true"
     inkscape:snap-smooth-nodes="true">
    <sodipodi:guide
       position="256,0"
       orientation="1,0"
       id="guide834"
       inkscape:locked="true"
       inkscape:label=""
       inkscape:color="rgb(0,0,255)" />
    <sodipodi:guide
       position="0,256"
       orientation="0,1"
       id="guide836"
       inkscape:locked="true"
       inkscape:label=""
       inkscape:color="rgb(0,0,255)" />
    <inkscape:grid
       type="xygrid"
       id="grid892"
       empspacing="4" />
  </sodipodi:namedview>
  <metadata
     id="metadata0">
    <rdf:RDF>
      <cc:Work
         rdf:about="">
        <dc:format>image/svg+xml</dc:format>
        <dc:type
           rdf:resource="http://purl.org/dc/dcmitype/StillImage" />
        <dc:title />
        <cc:license
           rdf:resource="https://creativecommons.org/licenses/by/4.0/" />
      </cc:Work>
    </rdf:RDF>
  </metadata>
  <g
     inkscape:groupmode="layer"
     id="layer2"
     inkscape:label="BG">
    <rect
       style="opacity:1;fill:url(#linearGradient888);fill-opacity:1"
       id="rect864"
       width="512"
       height="511.99997"
       x="0"
       y="0"
       ry="0" />
    <ellipse
       style="opacity:0.477712;fill:#82caff;fill-opacity:1;stroke-width:1.23741;filter:url(#filter940)"
       id="path922"
       cx="153.18028"
       cy="638.82703"
       rx="293.98648"
       ry="136"
       transform="rotate(-28.786823,-42.531042,38.390753)" />
    <g
       id="g2684"
       style="fill:#ffffff;fill-opacity:1"
       transform="translate(560,-60)">
      <path
         id="path979"
         style="fill:#ffffff;fill-opacity:1;stroke-width:1.22474;filter:url(#filter1106)"
         d="M -254.06446,139.96484 -256,168 l -28.03516,1.96484 28.03516,1.96484 1.96484,28.03516 1.96484,-28.03516 28.03516,-1.96484 -28.03516,-1.96484 -1.96484,-28.03516 z"
         sodipodi:nodetypes="cccccccccc" />
      <path
         id="path1112"
         style="fill:#ffffff;fill-opacity:1;stroke-width:1.22474;filter:url(#filter1106)"
         d="M -145.99414,203.96484 -147.92968,232 l -28.03516,1.96484 28.03516,1.96484 1.96484,28.03516 L -144,235.92968 -115.96484,233.96484 -144,232 l -1.96484,-28.03516 z"
         sodipodi:nodetypes="cccccccccc" />
      <path
         id="path1114"
         style="fill:#ffffff;fill-opacity:1;stroke-width:1.22474;filter:url(#filter1106)"
         d="M -270.06446,275.96484 -272,304 l -28.03516,1.96484 28.03516,1.96484 1.96484,28.03516 1.96484,-28.03516 28.03516,-1.96484 -28.03516,-1.96484 -1.96484,-28.03516 z"
         sodipodi:nodetypes="cccccccccc" />
      <path
         id="path1116"
         style="fill:#ffffff;fill-opacity:1;stroke-width:1.22474;filter:url(#filter1106)"
         d="m -137.99414,328.03516 -1.93554,28.03516 -28.03516,1.96484 28.03516,1.96484 1.96484,28.03516 L -136,360 -107.96484,358.03516 -136,356.07032 l -1.96484,-28.03516 z"
         sodipodi:nodetypes="cccccccccc" />
      <g
         id="use1200"
         transform="translate(-73.44557,81.760929)"
         style="fill:#ffffff;fill-opacity:1">
        <path
           id="path1936"
           style="opacity:1;fill:#ffffff;fill-opacity:1;stroke-width:1.22474;filter:url(#filter1106)"
           d="M -254.06446,139.96484 -256,168 l -28.03516,1.96484 28.03516,1.96484 1.96484,28.03516 1.96484,-28.03516 28.03516,-1.96484 -28.03516,-1.96484 -1.96484,-28.03516 z"
           sodipodi:nodetypes="cccccccccc" />
        <path
           id="path1938"
           style="opacity:1;fill:#ffffff;fill-opacity:1;stroke-width:1.22474;filter:url(#filter1106)"
           d="M -145.99414,203.96484 -147.92968,232 l -28.03516,1.96484 28.03516,1.96484 1.96484,28.03516 L -144,235.92968 -115.96484,233.96484 -144,232 l -1.96484,-28.03516 z"
           sodipodi:nodetypes="cccccccccc" />
        <path
           id="path1940"
           style="opacity:1;fill:#ffffff;fill-opacity:1;stroke-width:1.22474;filter:url(#filter1106)"
           d="M -270.06446,275.96484 -272,304 l -28.03516,1.96484 28.03516,1.96484 1.96484,28.03516 1.96484,-28.03516 28.03516,-1.96484 -28.03516,-1.96484 -1.96484,-28.03516 z"
           sodipodi:nodetypes="cccccccccc" />
        <path
           id="path1942"
           style="opacity:1;fill:#ffffff;fill-opacity:1;stroke-width:1.22474;filter:url(#filter1106)"
           d="m -137.99414,328.03516 -1.93554,28.03516 -28.03516,1.96484 28.03516,1.96484 1.96484,28.03516 L -136,360 -107.96484,358.03516 -136,356.07032 l -1.96484,-28.03516 z"
           sodipodi:nodetypes="cccccccccc" />
      </g>
      <g
         id="use1204"
         transform="translate(76.194471,-110.08048)"
         style="fill:#ffffff;fill-opacity:1">
        <path
           id="path1926"
           style="opacity:1;fill:#ffffff;fill-opacity:1;stroke-width:1.22474;filter:url(#filter1106)"
           d="M -254.06446,139.96484 -256,168 l -28.03516,1.96484 28.03516,1.96484 1.96484,28.03516 1.96484,-28.03516 28.03516,-1.96484 -28.03516,-1.96484 -1.96484,-28.03516 z"
           sodipodi:nodetypes="cccccccccc" />
        <path
           id="path1928"
           style="opacity:1;fill:#ffffff;fill-opacity:1;stroke-width:1.22474;filter:url(#filter1106)"
           d="M -145.99414,203.96484 -147.92968,232 l -28.03516,1.96484 28.03516,1.96484 1.96484,28.03516 L -144,235.92968 -115.96484,233.96484 -144,232 l -1.96484,-28.03516 z"
           sodipodi:nodetypes="cccccccccc" />
        <path
           id="path1930"
           style="opacity:1;fill:#ffffff;fill-opacity:1;stroke-width:1.22474;filter:url(#filter1106)"
           d="M -270.06446,275.96484 -272,304 l -28.03516,1.96484 28.03516,1.96484 1.96484,28.03516 1.96484,-28.03516 28.03516,-1.96484 -28.03516,-1.96484 -1.96484,-28.03516 z"
           sodipodi:nodetypes="cccccccccc" />
        <path
           id="path1932"
           style="opacity:1;fill:#ffffff;fill-opacity:1;stroke-width:1.22474;filter:url(#filter1106)"
           d="m -137.99414,328.03516 -1.93554,28.03516 -28.03516,1.96484 28.03516,1.96484 1.96484,28.03516 L -136,360 -107.96484,358.03516 -136,356.07032 l -1.96484,-28.03516 z"
           sodipodi:nodetypes="cccccccccc" />
      </g>
      <g
         id="use1206"
         transform="translate(-187.81174,-154.73361)"
         style="fill:#ffffff;fill-opacity:1">
        <path
           id="path1906"
           style="opacity:1;fill:#ffffff;fill-opacity:1;stroke-width:1.22474;filter:url(#filter1106)"
           d="M -254.06446,139.96484 -256,168 l -28.03516,1.96484 28.03516,1.96484 1.96484,28.03516 1.96484,-28.03516 28.03516,-1.96484 -28.03516,-1.96484 -1.96484,-28.03516 z"
           sodipodi:nodetypes="cccccccccc" />
        <path
           id="path1908"
           style="opacity:1;fill:#ffffff;fill-opacity:1;stroke-width:1.22474;filter:url(#filter1106)"
           d="M -145.99414,203.96484 -147.92968,232 l -28.03516,1.96484 28.03516,1.96484 1.96484,28.03516 L -144,235.92968 -115.96484,233.96484 -144,232 l -1.96484,-28.03516 z"
           sodipodi:nodetypes="cccccccccc" />
        <path
           id="path1910"
           style="opacity:1;fill:#ffffff;fill-opacity:1;stroke-width:1.22474;filter:url(#filter1106)"
           d="M -270.06446,275.96484 -272,304 l -28.03516,1.96484 28.03516,1.96484 1.96484,28.03516 1.96484,-28.03516 28.03516,-1.96484 -28.03516,-1.96484 -1.96484,-28.03516 z"
           sodipodi:nodetypes="cccccccccc" />
        <path
           id="path1912"
           style="opacity:1;fill:#ffffff;fill-opacity:1;stroke-width:1.22474;filter:url(#filter1106)"
           d="m -137.99414,328.03516 -1.93554,28.03516 -28.03516,1.96484 28.03516,1.96484 1.96484,28.03516 L -136,360 -107.96484,358.03516 -136,356.07032 l -1.96484,-28.03516 z"
           sodipodi:nodetypes="cccccccccc" />
      </g>
      <g
         id="use1208"
         transform="translate(-235.18574,6.4515096)"
         style="fill:#ffffff;fill-opacity:1">
        <path
           id="path1886"
           style="opacity:1;fill:#ffffff;fill-opacity:1;stroke-width:1.22474;filter:url(#filter1106)"
           d="M -254.06446,139.96484 -256,168 l -28.03516,1.96484 28.03516,1.96484 1.96484,28.03516 1.96484,-28.03516 28.03516,-1.96484 -28.03516,-1.96484 -1.96484,-28.03516 z"
           sodipodi:nodetypes="cccccccccc" />
        <path
           id="path1888"
           style="opacity:1;fill:#ffffff;fill-opacity:1;stroke-width:1.22474;filter:url(#filter1106)"
           d="M -145.99414,203.96484 -147.92968,232 l -28.03516,1.96484 28.03516,1.96484 1.96484,28.03516 L -144,235.92968 -115.96484,233.96484 -144,232 l -1.96484,-28.03516 z"
           sodipodi:nodetypes="cccccccccc" />
        <path
           id="path1890"
           style="opacity:1;fill:#ffffff;fill-opacity:1;stroke-width:1.22474;filter:url(#filter1106)"
           d="M -270.06446,275.96484 -272,304 l -28.03516,1.96484 28.03516,1.96484 1.96484,28.03516 1.96484,-28.03516 28.03516,-1.96484 -28.03516,-1.96484 -1.96484,-28.03516 z"
           sodipodi:nodetypes="cccccccccc" />
        <path
           id="path1892"
           style="opacity:1;fill:#ffffff;fill-opacity:1;stroke-width:1.22474;filter:url(#filter1106)"
           d="m -137.99414,328.03516 -1.93554,28.03516 -28.03516,1.96484 28.03516,1.96484 1.96484,28.03516 L -136,360 -107.96484,358.03516 -136,356.07032 l -1.96484,-28.03516 z"
           sodipodi:nodetypes="cccccccccc" />
      </g>
      <g
         id="use1212"
         transform="translate(-163.40226,221.5781)"
         style="fill:#ffffff;fill-opacity:1">
        <path
           id="path1896"
           style="opacity:1;fill:#ffffff;fill-opacity:1;stroke-width:1.22474;filter:url(#filter1106)"
           d="M -254.06446,139.96484 -256,168 l -28.03516,1.96484 28.03516,1.96484 1.96484,28.03516 1.96484,-28.03516 28.03516,-1.96484 -28.03516,-1.96484 -1.96484,-28.03516 z"
           sodipodi:nodetypes="cccccccccc" />
        <path
           id="path1898"
           style="opacity:1;fill:#ffffff;fill-opacity:1;stroke-width:1.22474;filter:url(#filter1106)"
           d="M -145.99414,203.96484 -147.92968,232 l -28.03516,1.96484 28.03516,1.96484 1.96484,28.03516 L -144,235.92968 -115.96484,233.96484 -144,232 l -1.96484,-28.03516 z"
           sodipodi:nodetypes="cccccccccc" />
        <path
           id="path1900"
           style="opacity:1;fill:#ffffff;fill-opacity:1;stroke-width:1.22474;filter:url(#filter1106)"
           d="M -270.06446,275.96484 -272,304 l -28.03516,1.96484 28.03516,1.96484 1.96484,28.03516 1.96484,-28.03516 28.03516,-1.96484 -28.03516,-1.96484 -1.96484,-28.03516 z"
           sodipodi:nodetypes="cccccccccc" />
        <path
           id="path1902"
           style="opacity:1;fill:#ffffff;fill-opacity:1;stroke-width:1.22474;filter:url(#filter1106)"
           d="m -137.99414,328.03516 -1.93554,28.03516 -28.03516,1.96484 28.03516,1.96484 1.96484,28.03516 L -136,360 -107.96484,358.03516 -136,356.07032 l -1.96484,-28.03516 z"
           sodipodi:nodetypes="cccccccccc" />
      </g>
      <g
         id="use1214"
         transform="translate(-353.20521,139.10763)"
         style="fill:#ffffff;fill-opacity:1">
        <path
           id="path1916"
           style="opacity:1;fill:#ffffff;fill-opacity:1;stroke-width:1.22474;filter:url(#filter1106)"
           d="M -254.06446,139.96484 -256,168 l -28.03516,1.96484 28.03516,1.96484 1.96484,28.03516 1.96484,-28.03516 28.03516,-1.96484 -28.03516,-1.96484 -1.96484,-28.03516 z"
           sodipodi:nodetypes="cccccccccc" />
        <path
           id="path1918"
           style="opacity:1;fill:#ffffff;fill-opacity:1;stroke-width:1.22474;filter:url(#filter1106)"
           d="M -145.99414,203.96484 -147.92968,232 l -28.03516,1.96484 28.03516,1.96484 1.96484,28.03516 L -144,235.92968 -115.96484,233.96484 -144,232 l -1.96484,-28.03516 z"
           sodipodi:nodetypes="cccccccccc" />
        <path
           id="path1920"
           style="opacity:1;fill:#ffffff;fill-opacity:1;stroke-width:1.22474;filter:url(#filter1106)"
           d="M -270.06446,275.96484 -272,304 l -28.03516,1.96484 28.03516,1.96484 1.96484,28.03516 1.96484,-28.03516 28.03516,-1.96484 -28.03516,-1.96484 -1.96484,-28.03516 z"
           sodipodi:nodetypes="cccccccccc" />
        <path
           id="path1922"
           style="opacity:1;fill:#ffffff;fill-opacity:1;stroke-width:1.22474;filter:url(#filter1106)"
           d="m -137.99414,328.03516 -1.93554,28.03516 -28.03516,1.96484 28.03516,1.96484 1.96484,28.03516 L -136,360 -107.96484,358.03516 -136,356.07032 l -1.96484,-28.03516 z"
           sodipodi:nodetypes="cccccccccc" />
      </g>
      <g
         id="use1260"
         transform="translate(-195.79915,135.55398)"
         style="fill:#ffffff;fill-opacity:1;filter:url(#filter1746)">
        <path
           id="path1302"
           style="opacity:1;mix-blend-mode:normal;fill:#ffffff;fill-opacity:1;stroke-width:0.61237;filter:url(#filter1242)"
           d="m -269.04981,139.96484 -0.96777,14.01758 -14.01758,0.98242 14.01758,0.98242 0.98242,14.01758 0.98242,-14.01758 14.01758,-0.98242 -14.01758,-0.98242 -0.98242,-14.01758 z"
           sodipodi:nodetypes="cccccccccc" />
        <path
           id="path1304"
           style="opacity:1;mix-blend-mode:normal;fill:#ffffff;fill-opacity:1;stroke-width:0.61237;filter:url(#filter1242)"
           d="m -215.01465,193 -0.96777,14.01758 L -230,208 -215.98242,208.98242 -215,223 -214.01758,208.98242 -200,208 -214.01758,207.01758 -215,193 Z"
           sodipodi:nodetypes="cccccccccc" />
        <path
           id="path1306"
           style="opacity:1;mix-blend-mode:normal;fill:#ffffff;fill-opacity:1;stroke-width:0.61237;filter:url(#filter1242)"
           d="M -279.03223,200.01758 -280,214.03516 -294.01758,215.01758 -280,216 l 0.98242,14.01758 0.98242,-14.01758 14.01758,-0.98242 -14.01758,-0.98242 -0.98242,-14.01758 z"
           sodipodi:nodetypes="cccccccccc" />
        <path
           id="path1308"
           style="opacity:1;mix-blend-mode:normal;fill:#ffffff;fill-opacity:1;stroke-width:0.61237;filter:url(#filter1242)"
           d="m -247.01465,233 -0.96777,14.01758 L -262,248 -247.98242,248.98242 -247,263 -246.01758,248.98242 -232,248 -246.01758,247.01758 -247,233 Z"
           sodipodi:nodetypes="cccccccccc" />
      </g>
      <g
         id="use1262"
         transform="translate(-95.326273,102.11798)"
         style="fill:#ffffff;fill-opacity:1;filter:url(#filter1750)">
        <path
           id="path1312"
           style="opacity:1;mix-blend-mode:normal;fill:#ffffff;fill-opacity:1;stroke-width:0.61237;filter:url(#filter1242)"
           d="m -269.04981,139.96484 -0.96777,14.01758 -14.01758,0.98242 14.01758,0.98242 0.98242,14.01758 0.98242,-14.01758 14.01758,-0.98242 -14.01758,-0.98242 -0.98242,-14.01758 z"
           sodipodi:nodetypes="cccccccccc" />
        <path
           id="path1314"
           style="opacity:1;mix-blend-mode:normal;fill:#ffffff;fill-opacity:1;stroke-width:0.61237;filter:url(#filter1242)"
           d="m -215.01465,193 -0.96777,14.01758 L -230,208 -215.98242,208.98242 -215,223 -214.01758,208.98242 -200,208 -214.01758,207.01758 -215,193 Z"
           sodipodi:nodetypes="cccccccccc" />
        <path
           id="path1316"
           style="opacity:1;mix-blend-mode:normal;fill:#ffffff;fill-opacity:1;stroke-width:0.61237;filter:url(#filter1242)"
           d="M -279.03223,200.01758 -280,214.03516 -294.01758,215.01758 -280,216 l 0.98242,14.01758 0.98242,-14.01758 14.01758,-0.98242 -14.01758,-0.98242 -0.98242,-14.01758 z"
           sodipodi:nodetypes="cccccccccc" />
        <path
           id="path1318"
           style="opacity:1;mix-blend-mode:normal;fill:#ffffff;fill-opacity:1;stroke-width:0.61237;filter:url(#filter1242)"
           d="m -247.01465,233 -0.96777,14.01758 L -262,248 -247.98242,248.98242 -247,263 -246.01758,248.98242 -232,248 -246.01758,247.01758 -247,233 Z"
           sodipodi:nodetypes="cccccccccc" />
      </g>
      <g
         id="use1264"
         transform="translate(-206.598,-74.40462)"
         style="fill:#ffffff;fill-opacity:1;filter:url(#filter1730)">
        <path
           id="path1322"
           style="opacity:1;mix-blend-mode:normal;fill:#ffffff;fill-opacity:1;stroke-width:0.61237;filter:url(#filter1242)"
           d="m -269.04981,139.96484 -0.96777,14.01758 -14.01758,0.98242 14.01758,0.98242 0.98242,14.01758 0.98242,-14.01758 14.01758,-0.98242 -14.01758,-0.98242 -0.98242,-14.01758 z"
           sodipodi:nodetypes="cccccccccc" />
        <path
           id="path1324"
           style="opacity:1;mix-blend-mode:normal;fill:#ffffff;fill-opacity:1;stroke-width:0.61237;filter:url(#filter1242)"
           d="m -215.01465,193 -0.96777,14.01758 L -230,208 -215.98242,208.98242 -215,223 -214.01758,208.98242 -200,208 -214.01758,207.01758 -215,193 Z"
           sodipodi:nodetypes="cccccccccc" />
        <path
           id="path1326"
           style="opacity:1;mix-blend-mode:normal;fill:#ffffff;fill-opacity:1;stroke-width:0.61237;filter:url(#filter1242)"
           d="M -279.03223,200.01758 -280,214.03516 -294.01758,215.01758 -280,216 l 0.98242,14.01758 0.98242,-14.01758 14.01758,-0.98242 -14.01758,-0.98242 -0.98242,-14.01758 z"
           sodipodi:nodetypes="cccccccccc" />
        <path
           id="path1328"
           style="opacity:1;mix-blend-mode:normal;fill:#ffffff;fill-opacity:1;stroke-width:0.61237;filter:url(#filter1242)"
           d="m -247.01465,233 -0.96777,14.01758 L -262,248 -247.98242,248.98242 -247,263 -246.01758,248.98242 -232,248 -246.01758,247.01758 -247,233 Z"
           sodipodi:nodetypes="cccccccccc" />
      </g>
      <g
         id="use1266"
         transform="translate(5.687981,208.61361)"
         style="fill:#ffffff;fill-opacity:1;filter:url(#filter1766)">
        <path
           id="path1332"
           style="opacity:1;mix-blend-mode:normal;fill:#ffffff;fill-opacity:1;stroke-width:0.61237;filter:url(#filter1242)"
           d="m -269.04981,139.96484 -0.96777,14.01758 -14.01758,0.98242 14.01758,0.98242 0.98242,14.01758 0.98242,-14.01758 14.01758,-0.98242 -14.01758,-0.98242 -0.98242,-14.01758 z"
           sodipodi:nodetypes="cccccccccc" />
        <path
           id="path1334"
           style="opacity:1;mix-blend-mode:normal;fill:#ffffff;fill-opacity:1;stroke-width:0.61237;filter:url(#filter1242)"
           d="m -215.01465,193 -0.96777,14.01758 L -230,208 -215.98242,208.98242 -215,223 -214.01758,208.98242 -200,208 -214.01758,207.01758 -215,193 Z"
           sodipodi:nodetypes="cccccccccc" />
        <path
           id="path1336"
           style="opacity:1;mix-blend-mode:normal;fill:#ffffff;fill-opacity:1;stroke-width:0.61237;filter:url(#filter1242)"
           d="M -279.03223,200.01758 -280,214.03516 -294.01758,215.01758 -280,216 l 0.98242,14.01758 0.98242,-14.01758 14.01758,-0.98242 -14.01758,-0.98242 -0.98242,-14.01758 z"
           sodipodi:nodetypes="cccccccccc" />
        <path
           id="path1338"
           style="opacity:1;mix-blend-mode:normal;fill:#ffffff;fill-opacity:1;stroke-width:0.61237;filter:url(#filter1242)"
           d="m -247.01465,233 -0.96777,14.01758 L -262,248 -247.98242,248.98242 -247,263 -246.01758,248.98242 -232,248 -246.01758,247.01758 -247,233 Z"
           sodipodi:nodetypes="cccccccccc" />
      </g>
      <g
         id="use1268"
         transform="translate(42.319733,54.86759)"
         style="fill:#ffffff;fill-opacity:1;filter:url(#filter1754)">
        <path
           id="path1342"
           style="opacity:1;mix-blend-mode:normal;fill:#ffffff;fill-opacity:1;stroke-width:0.61237;filter:url(#filter1242)"
           d="m -269.04981,139.96484 -0.96777,14.01758 -14.01758,0.98242 14.01758,0.98242 0.98242,14.01758 0.98242,-14.01758 14.01758,-0.98242 -14.01758,-0.98242 -0.98242,-14.01758 z"
           sodipodi:nodetypes="cccccccccc" />
        <path
           id="path1344"
           style="opacity:1;mix-blend-mode:normal;fill:#ffffff;fill-opacity:1;stroke-width:0.61237;filter:url(#filter1242)"
           d="m -215.01465,193 -0.96777,14.01758 L -230,208 -215.98242,208.98242 -215,223 -214.01758,208.98242 -200,208 -214.01758,207.01758 -215,193 Z"
           sodipodi:nodetypes="cccccccccc" />
        <path
           id="path1346"
           style="opacity:1;mix-blend-mode:normal;fill:#ffffff;fill-opacity:1;stroke-width:0.61237;filter:url(#filter1242)"
           d="M -279.03223,200.01758 -280,214.03516 -294.01758,215.01758 -280,216 l 0.98242,14.01758 0.98242,-14.01758 14.01758,-0.98242 -14.01758,-0.98242 -0.98242,-14.01758 z"
           sodipodi:nodetypes="cccccccccc" />
        <path
           id="path1348"
           style="opacity:1;mix-blend-mode:normal;fill:#ffffff;fill-opacity:1;stroke-width:0.61237;filter:url(#filter1242)"
           d="m -247.01465,233 -0.96777,14.01758 L -262,248 -247.98242,248.98242 -247,263 -246.01758,248.98242 -232,248 -246.01758,247.01758 -247,233 Z"
           sodipodi:nodetypes="cccccccccc" />
      </g>
      <g
         id="use1270"
         transform="translate(-100.48011,-67.94476)"
         style="fill:#ffffff;fill-opacity:1;filter:url(#filter1726)">
        <path
           id="path1352"
           style="opacity:1;mix-blend-mode:normal;fill:#ffffff;fill-opacity:1;stroke-width:0.61237;filter:url(#filter1242)"
           d="m -269.04981,139.96484 -0.96777,14.01758 -14.01758,0.98242 14.01758,0.98242 0.98242,14.01758 0.98242,-14.01758 14.01758,-0.98242 -14.01758,-0.98242 -0.98242,-14.01758 z"
           sodipodi:nodetypes="cccccccccc" />
        <path
           id="path1354"
           style="opacity:1;mix-blend-mode:normal;fill:#ffffff;fill-opacity:1;stroke-width:0.61237;filter:url(#filter1242)"
           d="m -215.01465,193 -0.96777,14.01758 L -230,208 -215.98242,208.98242 -215,223 -214.01758,208.98242 -200,208 -214.01758,207.01758 -215,193 Z"
           sodipodi:nodetypes="cccccccccc" />
        <path
           id="path1356"
           style="opacity:1;mix-blend-mode:normal;fill:#ffffff;fill-opacity:1;stroke-width:0.61237;filter:url(#filter1242)"
           d="M -279.03223,200.01758 -280,214.03516 -294.01758,215.01758 -280,216 l 0.98242,14.01758 0.98242,-14.01758 14.01758,-0.98242 -14.01758,-0.98242 -0.98242,-14.01758 z"
           sodipodi:nodetypes="cccccccccc" />
        <path
           id="path1358"
           style="opacity:1;mix-blend-mode:normal;fill:#ffffff;fill-opacity:1;stroke-width:0.61237;filter:url(#filter1242)"
           d="m -247.01465,233 -0.96777,14.01758 L -262,248 -247.98242,248.98242 -247,263 -246.01758,248.98242 -232,248 -246.01758,247.01758 -247,233 Z"
           sodipodi:nodetypes="cccccccccc" />
      </g>
      <g
         id="use1272"
         transform="translate(97.10919,-82.19458)"
         style="fill:#ffffff;fill-opacity:1;filter:url(#filter1722)">
        <path
           id="path1362"
           style="opacity:1;mix-blend-mode:normal;fill:#ffffff;fill-opacity:1;stroke-width:0.61237;filter:url(#filter1242)"
           d="m -269.04981,139.96484 -0.96777,14.01758 -14.01758,0.98242 14.01758,0.98242 0.98242,14.01758 0.98242,-14.01758 14.01758,-0.98242 -14.01758,-0.98242 -0.98242,-14.01758 z"
           sodipodi:nodetypes="cccccccccc" />
        <path
           id="path1364"
           style="opacity:1;mix-blend-mode:normal;fill:#ffffff;fill-opacity:1;stroke-width:0.61237;filter:url(#filter1242)"
           d="m -215.01465,193 -0.96777,14.01758 L -230,208 -215.98242,208.98242 -215,223 -214.01758,208.98242 -200,208 -214.01758,207.01758 -215,193 Z"
           sodipodi:nodetypes="cccccccccc" />
        <path
           id="path1366"
           style="opacity:1;mix-blend-mode:normal;fill:#ffffff;fill-opacity:1;stroke-width:0.61237;filter:url(#filter1242)"
           d="M -279.03223,200.01758 -280,214.03516 -294.01758,215.01758 -280,216 l 0.98242,14.01758 0.98242,-14.01758 14.01758,-0.98242 -14.01758,-0.98242 -0.98242,-14.01758 z"
           sodipodi:nodetypes="cccccccccc" />
        <path
           id="path1368"
           style="opacity:1;mix-blend-mode:normal;fill:#ffffff;fill-opacity:1;stroke-width:0.61237;filter:url(#filter1242)"
           d="m -247.01465,233 -0.96777,14.01758 L -262,248 -247.98242,248.98242 -247,263 -246.01758,248.98242 -232,248 -246.01758,247.01758 -247,233 Z"
           sodipodi:nodetypes="cccccccccc" />
      </g>
      <g
         id="use1274"
         transform="translate(-11.645932,-122.66725)"
         style="fill:#ffffff;fill-opacity:1;filter:url(#filter1478)">
        <path
           id="path1372"
           style="opacity:1;mix-blend-mode:normal;fill:#ffffff;fill-opacity:1;stroke-width:0.61237;filter:url(#filter1242)"
           d="m -269.04981,139.96484 -0.96777,14.01758 -14.01758,0.98242 14.01758,0.98242 0.98242,14.01758 0.98242,-14.01758 14.01758,-0.98242 -14.01758,-0.98242 -0.98242,-14.01758 z"
           sodipodi:nodetypes="cccccccccc" />
        <path
           id="path1374"
           style="opacity:1;mix-blend-mode:normal;fill:#ffffff;fill-opacity:1;stroke-width:0.61237;filter:url(#filter1242)"
           d="m -215.01465,193 -0.96777,14.01758 L -230,208 -215.98242,208.98242 -215,223 -214.01758,208.98242 -200,208 -214.01758,207.01758 -215,193 Z"
           sodipodi:nodetypes="cccccccccc" />
        <path
           id="path1376"
           style="opacity:1;mix-blend-mode:normal;fill:#ffffff;fill-opacity:1;stroke-width:0.61237;filter:url(#filter1242)"
           d="M -279.03223,200.01758 -280,214.03516 -294.01758,215.01758 -280,216 l 0.98242,14.01758 0.98242,-14.01758 14.01758,-0.98242 -14.01758,-0.98242 -0.98242,-14.01758 z"
           sodipodi:nodetypes="cccccccccc" />
        <path
           id="path1378"
           style="opacity:1;mix-blend-mode:normal;fill:#ffffff;fill-opacity:1;stroke-width:0.61237;filter:url(#filter1242)"
           d="m -247.01465,233 -0.96777,14.01758 L -262,248 -247.98242,248.98242 -247,263 -246.01758,248.98242 -232,248 -246.01758,247.01758 -247,233 Z"
           sodipodi:nodetypes="cccccccccc" />
      </g>
      <g
         id="use1276"
         transform="translate(165.03117,145.84021)"
         style="fill:#ffffff;fill-opacity:1;filter:url(#filter1762)">
        <path
           id="path1382"
           style="opacity:1;mix-blend-mode:normal;fill:#ffffff;fill-opacity:1;stroke-width:0.61237;filter:url(#filter1242)"
           d="m -269.04981,139.96484 -0.96777,14.01758 -14.01758,0.98242 14.01758,0.98242 0.98242,14.01758 0.98242,-14.01758 14.01758,-0.98242 -14.01758,-0.98242 -0.98242,-14.01758 z"
           sodipodi:nodetypes="cccccccccc" />
        <path
           id="path1384"
           style="opacity:1;mix-blend-mode:normal;fill:#ffffff;fill-opacity:1;stroke-width:0.61237;filter:url(#filter1242)"
           d="m -215.01465,193 -0.96777,14.01758 L -230,208 -215.98242,208.98242 -215,223 -214.01758,208.98242 -200,208 -214.01758,207.01758 -215,193 Z"
           sodipodi:nodetypes="cccccccccc" />
        <path
           id="path1386"
           style="opacity:1;mix-blend-mode:normal;fill:#ffffff;fill-opacity:1;stroke-width:0.61237;filter:url(#filter1242)"
           d="M -279.03223,200.01758 -280,214.03516 -294.01758,215.01758 -280,216 l 0.98242,14.01758 0.98242,-14.01758 14.01758,-0.98242 -14.01758,-0.98242 -0.98242,-14.01758 z"
           sodipodi:nodetypes="cccccccccc" />
        <path
           id="path1388"
           style="opacity:1;mix-blend-mode:normal;fill:#ffffff;fill-opacity:1;stroke-width:0.61237;filter:url(#filter1242)"
           d="m -247.01465,233 -0.96777,14.01758 L -262,248 -247.98242,248.98242 -247,263 -246.01758,248.98242 -232,248 -246.01758,247.01758 -247,233 Z"
           sodipodi:nodetypes="cccccccccc" />
      </g>
      <g
         id="use1278"
         transform="translate(58.083863,199.4197)"
         style="fill:#ffffff;fill-opacity:1;filter:url(#filter1758)">
        <path
           id="path1392"
           style="opacity:1;mix-blend-mode:normal;fill:#ffffff;fill-opacity:1;stroke-width:0.61237;filter:url(#filter1242)"
           d="m -269.04981,139.96484 -0.96777,14.01758 -14.01758,0.98242 14.01758,0.98242 0.98242,14.01758 0.98242,-14.01758 14.01758,-0.98242 -14.01758,-0.98242 -0.98242,-14.01758 z"
           sodipodi:nodetypes="cccccccccc" />
        <path
           id="path1394"
           style="opacity:1;mix-blend-mode:normal;fill:#ffffff;fill-opacity:1;stroke-width:0.61237;filter:url(#filter1242)"
           d="m -215.01465,193 -0.96777,14.01758 L -230,208 -215.98242,208.98242 -215,223 -214.01758,208.98242 -200,208 -214.01758,207.01758 -215,193 Z"
           sodipodi:nodetypes="cccccccccc" />
        <path
           id="path1396"
           style="opacity:1;mix-blend-mode:normal;fill:#ffffff;fill-opacity:1;stroke-width:0.61237;filter:url(#filter1242)"
           d="M -279.03223,200.01758 -280,214.03516 -294.01758,215.01758 -280,216 l 0.98242,14.01758 0.98242,-14.01758 14.01758,-0.98242 -14.01758,-0.98242 -0.98242,-14.01758 z"
           sodipodi:nodetypes="cccccccccc" />
        <path
           id="path1398"
           style="opacity:1;mix-blend-mode:normal;fill:#ffffff;fill-opacity:1;stroke-width:0.61237;filter:url(#filter1242)"
           d="m -247.01465,233 -0.96777,14.01758 L -262,248 -247.98242,248.98242 -247,263 -246.01758,248.98242 -232,248 -246.01758,247.01758 -247,233 Z"
           sodipodi:nodetypes="cccccccccc" />
      </g>
      <g
         id="use1280"
         transform="translate(-163.63414,288.4252)"
         style="fill:#ffffff;fill-opacity:1;filter:url(#filter1770)">
        <path
           id="path1402"
           style="opacity:1;mix-blend-mode:normal;fill:#ffffff;fill-opacity:1;stroke-width:0.61237;filter:url(#filter1242)"
           d="m -269.04981,139.96484 -0.96777,14.01758 -14.01758,0.98242 14.01758,0.98242 0.98242,14.01758 0.98242,-14.01758 14.01758,-0.98242 -14.01758,-0.98242 -0.98242,-14.01758 z"
           sodipodi:nodetypes="cccccccccc" />
        <path
           id="path1404"
           style="opacity:1;mix-blend-mode:normal;fill:#ffffff;fill-opacity:1;stroke-width:0.61237;filter:url(#filter1242)"
           d="m -215.01465,193 -0.96777,14.01758 L -230,208 -215.98242,208.98242 -215,223 -214.01758,208.98242 -200,208 -214.01758,207.01758 -215,193 Z"
           sodipodi:nodetypes="cccccccccc" />
        <path
           id="path1406"
           style="opacity:1;mix-blend-mode:normal;fill:#ffffff;fill-opacity:1;stroke-width:0.61237;filter:url(#filter1242)"
           d="M -279.03223,200.01758 -280,214.03516 -294.01758,215.01758 -280,216 l 0.98242,14.01758 0.98242,-14.01758 14.01758,-0.98242 -14.01758,-0.98242 -0.98242,-14.01758 z"
           sodipodi:nodetypes="cccccccccc" />
        <path
           id="path1408"
           style="opacity:1;mix-blend-mode:normal;fill:#ffffff;fill-opacity:1;stroke-width:0.61237;filter:url(#filter1242)"
           d="m -247.01465,233 -0.96777,14.01758 L -262,248 -247.98242,248.98242 -247,263 -246.01758,248.98242 -232,248 -246.01758,247.01758 -247,233 Z"
           sodipodi:nodetypes="cccccccccc" />
      </g>
      <g
         id="use1282"
         transform="translate(-324.82273,256.38172)"
         style="fill:#ffffff;fill-opacity:1;filter:url(#filter1778)">
        <path
           id="path1412"
           style="opacity:1;mix-blend-mode:normal;fill:#ffffff;fill-opacity:1;stroke-width:0.61237;filter:url(#filter1242)"
           d="m -269.04981,139.96484 -0.96777,14.01758 -14.01758,0.98242 14.01758,0.98242 0.98242,14.01758 0.98242,-14.01758 14.01758,-0.98242 -14.01758,-0.98242 -0.98242,-14.01758 z"
           sodipodi:nodetypes="cccccccccc" />
        <path
           id="path1414"
           style="opacity:1;mix-blend-mode:normal;fill:#ffffff;fill-opacity:1;stroke-width:0.61237;filter:url(#filter1242)"
           d="m -215.01465,193 -0.96777,14.01758 L -230,208 -215.98242,208.98242 -215,223 -214.01758,208.98242 -200,208 -214.01758,207.01758 -215,193 Z"
           sodipodi:nodetypes="cccccccccc" />
        <path
           id="path1416"
           style="opacity:1;mix-blend-mode:normal;fill:#ffffff;fill-opacity:1;stroke-width:0.61237;filter:url(#filter1242)"
           d="M -279.03223,200.01758 -280,214.03516 -294.01758,215.01758 -280,216 l 0.98242,14.01758 0.98242,-14.01758 14.01758,-0.98242 -14.01758,-0.98242 -0.98242,-14.01758 z"
           sodipodi:nodetypes="cccccccccc" />
        <path
           id="path1418"
           style="opacity:1;mix-blend-mode:normal;fill:#ffffff;fill-opacity:1;stroke-width:0.61237;filter:url(#filter1242)"
           d="m -247.01465,233 -0.96777,14.01758 L -262,248 -247.98242,248.98242 -247,263 -246.01758,248.98242 -232,248 -246.01758,247.01758 -247,233 Z"
           sodipodi:nodetypes="cccccccccc" />
      </g>
      <g
         id="use1284"
         transform="translate(-259.57979,237.13091)"
         style="fill:#ffffff;fill-opacity:1;filter:url(#filter1774)">
        <path
           id="path1422"
           style="opacity:1;mix-blend-mode:normal;fill:#ffffff;fill-opacity:1;stroke-width:0.61237;filter:url(#filter1242)"
           d="m -269.04981,139.96484 -0.96777,14.01758 -14.01758,0.98242 14.01758,0.98242 0.98242,14.01758 0.98242,-14.01758 14.01758,-0.98242 -14.01758,-0.98242 -0.98242,-14.01758 z"
           sodipodi:nodetypes="cccccccccc" />
        <path
           id="path1424"
           style="opacity:1;mix-blend-mode:normal;fill:#ffffff;fill-opacity:1;stroke-width:0.61237;filter:url(#filter1242)"
           d="m -215.01465,193 -0.96777,14.01758 L -230,208 -215.98242,208.98242 -215,223 -214.01758,208.98242 -200,208 -214.01758,207.01758 -215,193 Z"
           sodipodi:nodetypes="cccccccccc" />
        <path
           id="path1426"
           style="opacity:1;mix-blend-mode:normal;fill:#ffffff;fill-opacity:1;stroke-width:0.61237;filter:url(#filter1242)"
           d="M -279.03223,200.01758 -280,214.03516 -294.01758,215.01758 -280,216 l 0.98242,14.01758 0.98242,-14.01758 14.01758,-0.98242 -14.01758,-0.98242 -0.98242,-14.01758 z"
           sodipodi:nodetypes="cccccccccc" />
        <path
           id="path1428"
           style="opacity:1;mix-blend-mode:normal;fill:#ffffff;fill-opacity:1;stroke-width:0.61237;filter:url(#filter1242)"
           d="m -247.01465,233 -0.96777,14.01758 L -262,248 -247.98242,248.98242 -247,263 -246.01758,248.98242 -232,248 -246.01758,247.01758 -247,233 Z"
           sodipodi:nodetypes="cccccccccc" />
      </g>
      <g
         id="use1286"
         transform="translate(-320.29473,58.61807)"
         style="fill:#ffffff;fill-opacity:1;filter:url(#filter1742)">
        <path
           id="path1432"
           style="opacity:1;mix-blend-mode:normal;fill:#ffffff;fill-opacity:1;stroke-width:0.61237;filter:url(#filter1242)"
           d="m -269.04981,139.96484 -0.96777,14.01758 -14.01758,0.98242 14.01758,0.98242 0.98242,14.01758 0.98242,-14.01758 14.01758,-0.98242 -14.01758,-0.98242 -0.98242,-14.01758 z"
           sodipodi:nodetypes="cccccccccc" />
        <path
           id="path1434"
           style="opacity:1;mix-blend-mode:normal;fill:#ffffff;fill-opacity:1;stroke-width:0.61237;filter:url(#filter1242)"
           d="m -215.01465,193 -0.96777,14.01758 L -230,208 -215.98242,208.98242 -215,223 -214.01758,208.98242 -200,208 -214.01758,207.01758 -215,193 Z"
           sodipodi:nodetypes="cccccccccc" />
        <path
           id="path1436"
           style="opacity:1;mix-blend-mode:normal;fill:#ffffff;fill-opacity:1;stroke-width:0.61237;filter:url(#filter1242)"
           d="M -279.03223,200.01758 -280,214.03516 -294.01758,215.01758 -280,216 l 0.98242,14.01758 0.98242,-14.01758 14.01758,-0.98242 -14.01758,-0.98242 -0.98242,-14.01758 z"
           sodipodi:nodetypes="cccccccccc" />
        <path
           id="path1438"
           style="opacity:1;mix-blend-mode:normal;fill:#ffffff;fill-opacity:1;stroke-width:0.61237;filter:url(#filter1242)"
           d="m -247.01465,233 -0.96777,14.01758 L -262,248 -247.98242,248.98242 -247,263 -246.01758,248.98242 -232,248 -246.01758,247.01758 -247,233 Z"
           sodipodi:nodetypes="cccccccccc" />
      </g>
      <g
         id="use1288"
         transform="translate(-243.119,-7.41)"
         style="fill:#ffffff;fill-opacity:1;filter:url(#filter1738)">
        <path
           id="path1442"
           style="opacity:1;mix-blend-mode:normal;fill:#ffffff;fill-opacity:1;stroke-width:0.61237;filter:url(#filter1242)"
           d="m -269.04981,139.96484 -0.96777,14.01758 -14.01758,0.98242 14.01758,0.98242 0.98242,14.01758 0.98242,-14.01758 14.01758,-0.98242 -14.01758,-0.98242 -0.98242,-14.01758 z"
           sodipodi:nodetypes="cccccccccc" />
        <path
           id="path1444"
           style="opacity:1;mix-blend-mode:normal;fill:#ffffff;fill-opacity:1;stroke-width:0.61237;filter:url(#filter1242)"
           d="m -215.01465,193 -0.96777,14.01758 L -230,208 -215.98242,208.98242 -215,223 -214.01758,208.98242 -200,208 -214.01758,207.01758 -215,193 Z"
           sodipodi:nodetypes="cccccccccc" />
        <path
           id="path1446"
           style="opacity:1;mix-blend-mode:normal;fill:#ffffff;fill-opacity:1;stroke-width:0.61237;filter:url(#filter1242)"
           d="M -279.03223,200.01758 -280,214.03516 -294.01758,215.01758 -280,216 l 0.98242,14.01758 0.98242,-14.01758 14.01758,-0.98242 -14.01758,-0.98242 -0.98242,-14.01758 z"
           sodipodi:nodetypes="cccccccccc" />
        <path
           id="path1448"
           style="opacity:1;mix-blend-mode:normal;fill:#ffffff;fill-opacity:1;stroke-width:0.61237;filter:url(#filter1242)"
           d="m -247.01465,233 -0.96777,14.01758 L -262,248 -247.98242,248.98242 -247,263 -246.01758,248.98242 -232,248 -246.01758,247.01758 -247,233 Z"
           sodipodi:nodetypes="cccccccccc" />
      </g>
      <g
         id="use1290"
         transform="translate(-165.85779,-11.01712)"
         style="fill:#ffffff;fill-opacity:1;filter:url(#filter1734)">
        <path
           id="path1452"
           style="opacity:1;mix-blend-mode:normal;fill:#ffffff;fill-opacity:1;stroke-width:0.61237;filter:url(#filter1242)"
           d="m -269.04981,139.96484 -0.96777,14.01758 -14.01758,0.98242 14.01758,0.98242 0.98242,14.01758 0.98242,-14.01758 14.01758,-0.98242 -14.01758,-0.98242 -0.98242,-14.01758 z"
           sodipodi:nodetypes="cccccccccc" />
        <path
           id="path1454"
           style="opacity:1;mix-blend-mode:normal;fill:#ffffff;fill-opacity:1;stroke-width:0.61237;filter:url(#filter1242)"
           d="m -215.01465,193 -0.96777,14.01758 L -230,208 -215.98242,208.98242 -215,223 -214.01758,208.98242 -200,208 -214.01758,207.01758 -215,193 Z"
           sodipodi:nodetypes="cccccccccc" />
        <path
           id="path1456"
           style="opacity:1;mix-blend-mode:normal;fill:#ffffff;fill-opacity:1;stroke-width:0.61237;filter:url(#filter1242)"
           d="M -279.03223,200.01758 -280,214.03516 -294.01758,215.01758 -280,216 l 0.98242,14.01758 0.98242,-14.01758 14.01758,-0.98242 -14.01758,-0.98242 -0.98242,-14.01758 z"
           sodipodi:nodetypes="cccccccccc" />
        <path
           id="path1458"
           style="opacity:1;mix-blend-mode:normal;fill:#ffffff;fill-opacity:1;stroke-width:0.61237;filter:url(#filter1242)"
           d="m -247.01465,233 -0.96777,14.01758 L -262,248 -247.98242,248.98242 -247,263 -246.01758,248.98242 -232,248 -246.01758,247.01758 -247,233 Z"
           sodipodi:nodetypes="cccccccccc" />
      </g>
      <g
         id="g1792"
         style="fill:#ffffff;fill-opacity:1;filter:url(#filter1882)"
         transform="translate(24.51758,118.05274)">
        <path
           id="path1292"
           style="mix-blend-mode:normal;fill:#ffffff;fill-opacity:1;stroke-width:0.306185"
           d="m -438.5249,132.94726 -0.48389,7.00879 -7.00879,0.49121 7.00879,0.49121 0.49121,7.00879 0.49121,-7.00879 7.00879,-0.49121 -7.00879,-0.49121 -0.49121,-7.00879 z"
           sodipodi:nodetypes="cccccccccc" />
        <path
           id="path1782"
           style="mix-blend-mode:normal;fill:#ffffff;fill-opacity:1;stroke-width:0.306185"
           d="m -418.5249,152.94726 -0.48389,7.00879 -7.00879,0.49121 7.00879,0.49121 0.49121,7.00879 0.49121,-7.00879 7.00879,-0.49121 -7.00879,-0.49121 -0.49121,-7.00879 z"
           sodipodi:nodetypes="cccccccccc" />
        <path
           id="path1784"
           style="mix-blend-mode:normal;fill:#ffffff;fill-opacity:1;stroke-width:0.306185"
           d="m -440.5249,170.94726 -0.48389,7.00879 -7.00879,0.49121 7.00879,0.49121 0.49121,7.00879 0.49121,-7.00879 7.00879,-0.49121 -7.00879,-0.49121 -0.49121,-7.00879 z"
           sodipodi:nodetypes="cccccccccc" />
        <path
           id="path1786"
           style="mix-blend-mode:normal;fill:#ffffff;fill-opacity:1;stroke-width:0.306185"
           d="m -448.5249,150.94726 -0.48389,7.00879 -7.00879,0.49121 7.00879,0.49121 0.49121,7.00879 0.49121,-7.00879 7.00879,-0.49121 -7.00879,-0.49121 -0.49121,-7.00879 z"
           sodipodi:nodetypes="cccccccccc" />
      </g>
      <use
         id="use1844"
         inkscape:spray-origin="#g1792"
         xlink:href="#g1792"
         x="0"
         y="0"
         width="100%"
         height="100%"
         transform="translate(114.86917,-91.3403)"
         style="fill:#ffffff;fill-opacity:1" />
      <use
         id="use1846"
         inkscape:spray-origin="#g1792"
         xlink:href="#g1792"
         x="0"
         y="0"
         width="100%"
         height="100%"
         transform="translate(107.23222,-59.2492)"
         style="fill:#ffffff;fill-opacity:1" />
      <use
         id="use1848"
         inkscape:spray-origin="#g1792"
         xlink:href="#g1792"
         x="0"
         y="0"
         width="100%"
         height="100%"
         transform="translate(100.57322,-91.94908)"
         style="fill:#ffffff;fill-opacity:1" />
      <use
         id="use1850"
         inkscape:spray-origin="#g1792"
         xlink:href="#g1792"
         x="0"
         y="0"
         width="100%"
         height="100%"
         transform="translate(-9.462608,-81.48777)"
         style="fill:#ffffff;fill-opacity:1" />
      <use
         id="use1852"
         inkscape:spray-origin="#g1792"
         xlink:href="#g1792"
         x="0"
         y="0"
         width="100%"
         height="100%"
         transform="translate(-50.334332,23.88542)"
         style="fill:#ffffff;fill-opacity:1" />
      <use
         id="use1854"
         inkscape:spray-origin="#g1792"
         xlink:href="#g1792"
         x="0"
         y="0"
         width="100%"
         height="100%"
         transform="translate(163.91068,41.98146)"
         style="fill:#ffffff;fill-opacity:1" />
      <use
         id="use1856"
         inkscape:spray-origin="#g1792"
         xlink:href="#g1792"
         x="0"
         y="0"
         width="100%"
         height="100%"
         transform="translate(88.4733,95.19018)"
         style="fill:#ffffff;fill-opacity:1" />
      <use
         id="use1858"
         inkscape:spray-origin="#g1792"
         xlink:href="#g1792"
         x="0"
         y="0"
         width="100%"
         height="100%"
         transform="translate(41.39997,36.58456)"
         style="fill:#ffffff;fill-opacity:1" />
      <use
         id="use1860"
         inkscape:spray-origin="#g1792"
         xlink:href="#g1792"
         x="0"
         y="0"
         width="100%"
         height="100%"
         transform="translate(278.58501,29.56)"
         style="fill:#ffffff;fill-opacity:1" />
      <use
         id="use1862"
         inkscape:spray-origin="#g1792"
         xlink:href="#g1792"
         x="0"
         y="0"
         width="100%"
         height="100%"
         transform="translate(222.45799,67.69516)"
         style="fill:#ffffff;fill-opacity:1" />
      <use
         id="use1864"
         inkscape:spray-origin="#g1792"
         xlink:href="#g1792"
         x="0"
         y="0"
         width="100%"
         height="100%"
         transform="translate(161.25758,155.70642)"
         style="fill:#ffffff;fill-opacity:1" />
      <use
         id="use1866"
         inkscape:spray-origin="#g1792"
         xlink:href="#g1792"
         x="0"
         y="0"
         width="100%"
         height="100%"
         transform="translate(-7.800293,159.86189)"
         style="fill:#ffffff;fill-opacity:1" />
      <use
         id="use1868"
         inkscape:spray-origin="#g1792"
         xlink:href="#g1792"
         x="0"
         y="0"
         width="100%"
         height="100%"
         transform="translate(-162.06104,145.90467)"
         style="fill:#ffffff;fill-opacity:1" />
      <use
         id="use1870"
         inkscape:spray-origin="#g1792"
         xlink:href="#g1792"
         x="0"
         y="0"
         width="100%"
         height="100%"
         transform="translate(-138.54957,75.89774)"
         style="fill:#ffffff;fill-opacity:1" />
      <use
         id="use1872"
         inkscape:spray-origin="#g1792"
         xlink:href="#g1792"
         x="0"
         y="0"
         width="100%"
         height="100%"
         transform="translate(222.39484,-116.77318)"
         style="fill:#ffffff;fill-opacity:1" />
      <use
         id="use1874"
         inkscape:spray-origin="#g1792"
         xlink:href="#g1792"
         x="0"
         y="0"
         width="100%"
         height="100%"
         transform="translate(122.86762,-13.56386)"
         style="fill:#ffffff;fill-opacity:1" />
      <use
         id="use1876"
         inkscape:spray-origin="#g1792"
         xlink:href="#g1792"
         x="0"
         y="0"
         width="100%"
         height="100%"
         transform="translate(206.52757,5.71804)"
         style="fill:#ffffff;fill-opacity:1" />
    </g>
  </g>
  <g
     inkscape:label="Work"
     inkscape:groupmode="layer"
     id="layer0"
     transform="translate(0,-161.53336)">
    <path
       id="rect2686"
       style="opacity:1;fill:#3d3846;fill-opacity:1"
       d="M 0,0 V 256 C 0,114.6151 114.6151,0 256,0 Z M 256,0 C 397.3849,0 512,114.6151 512,256 V 0 Z M 512,256 C 512,397.3849 397.3849,512 256,512 H 512 Z M 256,512 C 114.6151,512 0,397.3849 0,256 v 256 z"
       sodipodi:nodetypes="cccccccccccccccc"
       transform="translate(0,161.53336)" />
    <rect
       style="opacity:1;fill:#658fb8;fill-opacity:1"
       id="rect894"
       width="16"
       height="8"
       x="-80"
       y="49.53336" />
    <g
       id="g948"
       transform="translate(4.08422,2.8143047)">
      <path
         d="m 131.91554,294.71917 v 240 h 67.5 v -172.5 h 86.25 v -67.5 z m 172.5,0 v 240 h 67.5 v -240 z m -86.25,86.25 v 153.75 h 67.5 v -153.75 z"
         style="fill:url(#linearGradient913);fill-opacity:1;stroke:none;stroke-width:11.25;stroke-miterlimit:4;stroke-dasharray:none;stroke-opacity:1"
         id="rect4140-1" />
      <path
         id="rect915"
         style="opacity:1;fill:url(#linearGradient2707);fill-opacity:1;stroke-width:1.01709"
         d="m 304.41602,133.18555 v 66.85547 c 22.04605,5.60557 44.3118,6.22755 67.5,-4.00586 v -62.84961 c -10.07519,-0.42087 -48.30328,-13.96629 -67.5,0 z"
         transform="translate(0,161.53336)"
         sodipodi:nodetypes="ccccc" />
      <path
         id="path950"
         style="fill:#ffffff;fill-opacity:1;stroke:none;stroke-width:11.25;stroke-miterlimit:4;stroke-dasharray:none;stroke-opacity:1;opacity:0.25"
         d="m 282,136 v 67.5 h 7.75 V 136 Z m 86.5,0 V 376 H 376 V 136 Z M 196,203.5 V 376 h 7.5 V 203.5 Z m 86.25,18.75 V 376 h 7.5 V 222.25 Z"
         transform="translate(-4.08422,158.71906)"
         sodipodi:nodetypes="cccccccccccccccccccc" />
      <path
         id="path2699"
         style="opacity:1;fill:url(#linearGradient2715);fill-opacity:1;stroke-width:1.01709"
         d="M 132,133.18555 V 156 c 56.22736,-13.55243 104.89484,20.50824 153.66602,38.19141 v -61.00586 c -47.35754,-10.7687 -98.65307,-10.56384 -153.66602,0 z"
         transform="translate(0,161.53336)"
         sodipodi:nodetypes="ccccc" />
    </g>
    <path
       id="path834"
       style="opacity:1;fill:#ffffff;stroke-width:1.34645"
       d="M 256,0 C 114.6151,0 0,114.6151 0,256 0,397.3849 114.6151,512 256,512 397.3849,512 512,397.3849 512,256 512,114.6151 397.3849,0 256,0 Z m 0,16 C 388.44916,15.859982 496,123.45166 496,256 496,388.54834 388.54834,496 256,496 123.45166,496 16.000148,388.44931 16,256 15.999852,123.55069 123.55084,16.140018 256,16 Z"
       transform="translate(0,161.53336)"
       sodipodi:nodetypes="ssssszzzzz" />
    <path
       id="path2697"
       style="opacity:0.49994374;fill:#000000;stroke-width:1.2623"
       d="m 256,177.53336 c -132.54834,0 -240,107.45166 -240,240 0,132.54834 107.45166,240 240,240 132.54834,0 240,-107.45166 240,-240 0,-132.54834 -107.45166,-240 -240,-240 z m 0,15 c 124.17109,-0.13127 225,100.73593 225,225 0,124.26407 -100.73593,225 -225,225 -124.26407,0 -224.999861,-100.82877 -225,-225 -1.39e-4,-124.17123 100.82891,-224.86873 225,-225 z"
       sodipodi:nodetypes="ssssszzzzz" />
  </g>
  <g
     inkscape:groupmode="layer"
     id="layer1"
     inkscape:label="Telegram"
     sodipodi:insensitive="true"
     style="display:inline;opacity:0.15">
    <path
       style="opacity:1;fill:#000000;fill-opacity:1;stroke-width:0.996456"
       d="M 0,0 V 256 A 256,256 0 0 1 256,0 Z M 256,0 A 256,256 0 0 1 512,256 V 0 Z M 512,256 A 256,256 0 0 1 256,512 H 512 Z M 256,512 A 256,256 0 0 1 0,256 v 256 z"
       id="rect827"
       inkscape:connector-curvature="0" />
  </g>
</svg>
